{
	"info": {
		"_postman_id": "29e0f307-07e0-43d3-9f23-11ef95d67c60",
		"name": "MelhorSaúde",
		"schema": "https://schema.getpostman.com/json/collection/v2.1.0/collection.json"
	},
	"item": [
		{
			"name": "Cliente",
			"item": [
				{
					"name": "Create",
					"request": {
						"method": "POST",
						"header": [],
						"body": {
							"mode": "raw",
							"raw": "{\r\n    \"nome\": \"Maisa do Silvio Santos\",\r\n    \"telefone\":\"1199200010\"\r\n}",
							"options": {
								"raw": {
									"language": "json"
								}
							}
						},
						"url": {
							"raw": "{{host}}/cliente",
							"host": [
								"{{host}}"
							],
							"path": [
								"cliente"
							]
						}
					},
					"response": []
				},
				{
					"name": "Delete{id}",
					"request": {
						"method": "DELETE",
						"header": [],
						"url": {
							"raw": "{{host}}/cliente/33",
							"host": [
								"{{host}}"
							],
							"path": [
								"cliente",
								"33"
							]
						}
					},
					"response": []
				},
				{
					"name": "GetAll",
					"request": {
						"method": "GET",
						"header": [],
						"url": {
							"raw": "{{host}}/cliente",
							"host": [
								"{{host}}"
							],
							"path": [
								"cliente"
							]
						}
					},
					"response": []
				},
				{
					"name": "Modelo",
					"request": {
						"method": "GET",
						"header": [],
						"url": {
							"raw": "{{host}}/cliente/modelo",
							"host": [
								"{{host}}"
							],
							"path": [
								"cliente",
								"modelo"
							]
						}
					},
					"response": []
				},
				{
					"name": "Update{id}",
					"request": {
						"method": "PUT",
						"header": [],
						"body": {
							"mode": "raw",
							"raw": "{\r\n    \"nome\": \"Mestre Yoda Sayajin\",\r\n    \"telefone\":\"1599255010\"\r\n}",
							"options": {
								"raw": {
									"language": "json"
								}
							}
						},
						"url": {
							"raw": "{{host}}/cliente/6",
							"host": [
								"{{host}}"
							],
							"path": [
								"cliente",
								"6"
							]
						}
					},
					"response": []
				}
			],
			"protocolProfileBehavior": {}
		},
		{
			"name": "Perfis",
			"item": [
				{
					"name": "Create",
					"request": {
						"method": "POST",
						"header": [
							{
								"key": "Content-Type",
								"value": "application/json",
								"type": "text"
							},
							{
								"key": "Accept",
								"value": "application/json",
								"type": "text"
							}
						],
						"body": {
							"mode": "raw",
							"raw": "{\n\t\"situacaoUsuario\": 2,\n    \"permissaoCliente\": 1,\n    \"permissaoVendedor\": 2,\n\t\"permissaoEspecialista\": 0,\n\t\"permissaoClinica\": 1\n}",
							"options": {
								"raw": {
									"language": "json"
								}
							}
						},
						"url": {
							"raw": "{{host}}/perfis/",
							"host": [
								"{{host}}"
							],
							"path": [
								"perfis",
								""
							]
						}
					},
					"response": []
				},
				{
					"name": "CreateWithUsuario{id}",
					"request": {
						"method": "POST",
						"header": [],
						"body": {
							"mode": "raw",
							"raw": "{\n\t\"situacaoUsuario\": 2,\n    \"permissaoCliente\": 1,\n    \"permissaoVendedor\": 2,\n\t\"permissaoEspecialista\": 0,\n\t\"permissaoClinica\": 1\n}",
							"options": {
								"raw": {
									"language": "json"
								}
							}
						},
						"url": {
							"raw": "{{host}}/perfis/usuario/1",
							"host": [
								"{{host}}"
							],
							"path": [
								"perfis",
								"usuario",
								"1"
							]
						}
					},
					"response": []
				},
				{
					"name": "CreateWithClinica{clinica_id}",
					"request": {
						"method": "POST",
						"header": [],
						"body": {
							"mode": "raw",
							"raw": "{\n\t\"situacaoUsuario\": 2,\n    \"permissaoCliente\": 1,\n    \"permissaoVendedor\": 2,\n\t\"permissaoEspecialista\": 0,\n\t\"permissaoClinica\": 1\n}",
							"options": {
								"raw": {
									"language": "json"
								}
							}
						},
						"url": {
							"raw": "{{host}}/perfis/clinica/1",
							"host": [
								"{{host}}"
							],
							"path": [
								"perfis",
								"clinica",
								"1"
							]
						}
					},
					"response": []
				},
				{
					"name": "CreateWithCliente{cliente_id}",
					"request": {
						"method": "POST",
						"header": [
							{
								"key": "Accept",
								"value": "application/json",
								"type": "text"
							},
							{
								"key": "Content-Type",
								"value": "application/json",
								"type": "text"
							},
							{
								"key": "",
								"value": "application/json",
								"type": "text",
								"disabled": true
							}
						],
						"body": {
							"mode": "raw",
							"raw": "{\n\t\"situacaoUsuario\": 2,\n    \"permissaoCliente\": 1,\n    \"permissaoVendedor\": 2,\n\t\"permissaoEspecialista\": 0,\n\t\"permissaoClinica\": 1\n}",
							"options": {
								"raw": {
									"language": "json"
								}
							}
						},
						"url": {
							"raw": "{{host}}/perfis/cliente/1",
							"host": [
								"{{host}}"
							],
							"path": [
								"perfis",
								"cliente",
								"1"
							]
						}
					},
					"response": []
				},
				{
					"name": "Delete{id}",
					"request": {
						"method": "DELETE",
						"header": [],
						"url": {
							"raw": "{{host}}/perfis/98",
							"host": [
								"{{host}}"
							],
							"path": [
								"perfis",
								"98"
							]
						}
					},
					"response": []
				},
				{
					"name": "GetAll",
					"request": {
						"method": "GET",
						"header": [],
						"url": {
							"raw": "{{host}}/perfis",
							"host": [
								"{{host}}"
							],
							"path": [
								"perfis"
							]
						}
					},
					"response": []
				},
				{
					"name": "Modelo",
					"request": {
						"method": "GET",
						"header": [],
						"url": {
							"raw": "{{host}}/perfis/modelo",
							"host": [
								"{{host}}"
							],
							"path": [
								"perfis",
								"modelo"
							]
						}
					},
					"response": []
				},
				{
					"name": "Update{id}",
					"request": {
						"method": "PUT",
						"header": [],
						"body": {
							"mode": "raw",
							"raw": "{\n\t\"situacaoUsuario\": 2,\n    \"permissaoCliente\": 1,\n    \"permissaoVendedor\": 2,\n\t\"permissaoEspecialista\": 0\n\t\"clinica\":1\n}",
							"options": {
								"raw": {
									"language": "json"
								}
							}
						},
						"url": {
							"raw": "{{host}}/perfis/1",
							"host": [
								"{{host}}"
							],
							"path": [
								"perfis",
								"1"
							]
						}
					},
					"response": []
				},
				{
					"name": "UpdateWithCliente{perfil_id}{cliente_id}",
					"request": {
						"method": "PUT",
						"header": [],
						"body": {
							"mode": "raw",
							"raw": "{\n\t\"situacaoUsuario\" : 2\n}",
							"options": {
								"raw": {
									"language": "json"
								}
							}
						},
						"url": {
							"raw": "{{host}}/perfis/usuario/2/2",
							"host": [
								"{{host}}"
							],
							"path": [
								"perfis",
								"usuario",
								"2",
								"2"
							]
						}
					},
					"response": []
				},
				{
					"name": "UpdateWithClinica{perfil_id}{clinica_id}",
					"request": {
						"method": "PUT",
						"header": [
							{
								"key": "",
								"value": "",
								"type": "text",
								"disabled": true
							}
						],
						"body": {
							"mode": "raw",
							"raw": "{\n\t\"permissaoClinica\" : 1\n}",
							"options": {
								"raw": {
									"language": "json"
								}
							}
						},
						"url": {
							"raw": "{{host}}/perfis/clinica/1/3",
							"host": [
								"{{host}}"
							],
							"path": [
								"perfis",
								"clinica",
								"1",
								"3"
							]
						}
					},
					"response": []
				},
				{
					"name": "UpdateWithUsuario{perfil_id}{usuario_id}",
					"request": {
						"method": "PUT",
						"header": [],
						"body": {
							"mode": "raw",
							"raw": "{\n\t\"situacaoUsuario\" : 2\n}",
							"options": {
								"raw": {
									"language": "json"
								}
							}
						},
						"url": {
							"raw": "{{host}}/perfis/usuario/2/2",
							"host": [
								"{{host}}"
							],
							"path": [
								"perfis",
								"usuario",
								"2",
								"2"
							]
						}
					},
					"response": []
				}
			],
			"protocolProfileBehavior": {}
		},
		{
			"name": "Servicos",
			"item": [
				{
					"name": "Create",
					"request": {
						"method": "POST",
						"header": [],
						"body": {
							"mode": "raw",
							"raw": "{\r\n\t\"nome\":\"Cardiologista\",\r\n    \"preco\":300.99,\r\n    \"precoMax\": 400.98,\r\n    \"oferta\": 250.97,\r\n    \"descricao\": \"Deve-se consultar um cardiologista, basicamente, em duas situações: para orientação preventiva e para tratamento de alguma doença. I-Cardiologia Preventiva:.\",\r\n    \"images\": \"https://clinicasim.com/fortaleza/wp-content/uploads/sites/2/2015/12/cardiologista.png\",\r\n    \"imagemCapa\": \"https://www.globalmedclinica.com.br/wp-content/uploads/2016/02/medico_cardiologista-780x520.png\"\r\n}\r\n",
							"options": {
								"raw": {
									"language": "json"
								}
							}
						},
						"url": {
							"raw": "{{host}}/servicos",
							"host": [
								"{{host}}"
							],
							"path": [
								"servicos"
							]
						}
					},
					"response": []
				},
				{
					"name": "CreateWithClinica{clinica_id}",
					"request": {
						"method": "POST",
						"header": [],
						"body": {
							"mode": "raw",
							"raw": "{\r\n\t\"nome\":\"Cardiologista\",\r\n    \"preco\":300.99,\r\n    \"precoMax\": 400.98,\r\n    \"oferta\": 250.97,\r\n    \"descricao\": \"Deve-se consultar um cardiologista, basicamente, em duas situações: para orientação preventiva e para tratamento de alguma doença. I-Cardiologia Preventiva:.\",\r\n    \"images\": \"https://clinicasim.com/fortaleza/wp-content/uploads/sites/2/2015/12/cardiologista.png\",\r\n    \"imagemCapa\": \"https://www.globalmedclinica.com.br/wp-content/uploads/2016/02/medico_cardiologista-780x520.png\"\r\n}\r\n",
							"options": {
								"raw": {
									"language": "json"
								}
							}
						},
						"url": {
							"raw": "{{host}}/servicos/clinica/1",
							"host": [
								"{{host}}"
							],
							"path": [
								"servicos",
								"clinica",
								"1"
							]
						}
					},
					"response": []
				},
				{
					"name": "GetAll",
					"request": {
						"method": "GET",
						"header": [],
						"url": {
							"raw": "{{host}}/servicos",
							"host": [
								"{{host}}"
							],
							"path": [
								"servicos"
							]
						}
					},
					"response": []
				},
				{
					"name": "Update{id}",
					"request": {
						"method": "PUT",
						"header": [],
						"body": {
							"mode": "raw",
							"raw": "{\n\t\"nome\":\"Mrs Tira D'entes\",\n    \"preco\":1300.99,\n    \"precoMax\": 1400.98,\n    \"oferta\": 1250.97,\n    \"descricao\": \"Remoção de dentes catariados com garantia de satisfação\",\n    \"images\": \"https://clinicasim.com/fortaleza/wp-content/uploads/sites/2/2015/12/cardiologista.png\",\n    \"imagemCapa\": \"https://www.globalmedclinica.com.br/wp-content/uploads/2016/02/medico_cardiologista-780x520.png\",\n    \"clinica_id\": 33\n}",
							"options": {
								"raw": {
									"language": "json"
								}
							}
						},
						"url": {
							"raw": "{{host}}/servicos/258",
							"host": [
								"{{host}}"
							],
							"path": [
								"servicos",
								"258"
							]
						}
					},
					"response": []
				},
				{
					"name": "UpdateWithClinica{servico_id}{clinica_id}",
					"request": {
						"method": "PUT",
						"header": [],
						"body": {
							"mode": "raw",
							"raw": "{\n\t\"nome\": \"Médico do Coração\"\n}",
							"options": {
								"raw": {
									"language": "json"
								}
							}
						},
						"url": {
							"raw": "{{host}}/servicos/clinica/33/1",
							"host": [
								"{{host}}"
							],
							"path": [
								"servicos",
								"clinica",
								"33",
								"1"
							]
						}
					},
					"response": []
				},
				{
					"name": "Delete{id}",
					"request": {
						"method": "DELETE",
						"header": [],
						"url": {
							"raw": "{{host}}/servicos/258",
							"host": [
								"{{host}}"
							],
							"path": [
								"servicos",
								"258"
							]
						}
					},
					"response": []
				}
			],
			"protocolProfileBehavior": {}
		},
		{
			"name": "Usuario",
			"item": [
				{
					"name": "GetAll",
					"protocolProfileBehavior": {
						"disableBodyPruning": true
					},
					"request": {
						"method": "GET",
						"header": [],
						"body": {
							"mode": "raw",
							"raw": "{\n\t\"nome\":\"julio\",\n\t\"email\":\"julio@gmail.com\",\n\t\"senha\":\"12345678\"\n}",
							"options": {
								"raw": {
									"language": "json"
								}
							}
						},
						"url": {
							"raw": "{{host}}/usuario",
							"host": [
								"{{host}}"
							],
							"path": [
								"usuario"
							]
						}
					},
					"response": []
				},
				{
					"name": "Create",
					"request": {
						"method": "POST",
						"header": [],
						"body": {
							"mode": "raw",
							"raw": "{\n        \"nome\": \"Julio Cesar Urnau de Almeida\",\n        \"email\": \"teste1@teste.com\",\n        \"senha\": \"231\",\n        \"telefone\": \"1199999-0000\",\n        \"cpf\": \"23123\",\n        \"cnpj\": \"\"\n\n}",
							"options": {
								"raw": {
									"language": "json"
								}
							}
						},
						"url": {
							"raw": "{{host}}/usuario",
							"host": [
								"{{host}}"
							],
							"path": [
								"usuario"
							]
						}
					},
					"response": []
				},
				{
					"name": "Update{id}",
					"request": {
						"method": "PUT",
						"header": [],
						"body": {
							"mode": "raw",
							"raw": "{\r\n    \"nome\": \"Fiap.Com.Br\",\r\n    \"email\": \"teste3211@fiap.com.br\",\r\n    \"senha\": \"dt_fiap\",\r\n    \"telefone\": \"1199999-0000\",\r\n    \"cpf\": \"23123\",\r\n    \"cnpj\": \"91248901529\"\r\n}",
							"options": {
								"raw": {
									"language": "json"
								}
							}
						},
						"url": {
							"raw": "{{host}}/usuario/6",
							"host": [
								"{{host}}"
							],
							"path": [
								"usuario",
								"6"
							]
						}
					},
					"response": []
				},
				{
					"name": "Delete{id}",
					"request": {
						"method": "DELETE",
						"header": [],
						"url": {
							"raw": "{{host}}/usuario/33",
							"host": [
								"{{host}}"
							],
							"path": [
								"usuario",
								"33"
							]
						}
					},
					"response": []
				}
			],
			"protocolProfileBehavior": {}
		},
		{
			"name": "Clinica",
			"item": [
				{
					"name": "Create",
					"request": {
						"method": "POST",
						"header": [],
						"body": {
							"mode": "raw",
							"raw": "{\r\n\t\"nome\": \"Clinca Medica Floresta\",\r\n\t\"url_logo\": \"https://static.ndonline.com.br/2019/07/logo-externo-27-800x752.jpg\",\r\n    \"site\": \"https://ndmais.com.br/clube-nd/saude/60-de-desconto-na-consulta-da-clinica-medica-floresta/\",\r\n    \"email\": \"contato@clinicamedicafloresta.com.br\",\r\n\t\"telefone\": \"21831231\",\r\n    \"descricao\": \"A Clínica Médica Floresta, oferece o bom atendimento, humanizado, fácil acesso e profissionais totalmente qualificados para o atendimento diferenciado.Na clínica, sócios do Clube ND tem desconto de 60% na consulta.\",\r\n\t\"cnpj\":\"15.033.825/0001-80\"\r\n}",
							"options": {
								"raw": {
									"language": "json"
								}
							}
						},
						"url": {
							"raw": "{{host}}/clinica",
							"host": [
								"{{host}}"
							],
							"path": [
								"clinica"
							]
						}
					},
					"response": []
				},
				{
					"name": "Delete{id}",
					"request": {
						"method": "DELETE",
						"header": [],
						"url": {
							"raw": "{{host}}/clinica/3",
							"host": [
								"{{host}}"
							],
							"path": [
								"clinica",
								"3"
							]
						}
					},
					"response": []
				},
				{
					"name": "GelAll",
					"request": {
						"method": "GET",
						"header": [],
						"url": {
							"raw": "{{host}}/clinica",
							"host": [
								"{{host}}"
							],
							"path": [
								"clinica"
							]
						}
					},
					"response": []
				},
				{
					"name": "Update{id}",
					"request": {
						"method": "PUT",
						"header": [],
						"body": {
							"mode": "raw",
							"raw": "{\r\n\t\"nome\": \"PEBMED\",\r\n\t\"url_logo\": \"http://www.pebmed.com.br/gifswb/simbolo-192.png\",\r\n    \"site\": \"https://pebmed.com.br/\",\r\n    \"email\": \"contato@pebmed.com.br\",\r\n\t\"telefone\": \"12831231\",\r\n    \"descricao\": \"Para ajudar você a escolher a residência médica que está mais alinhada com suas qualidades e seus objetivos, a PEBMED convidou um grupo de especialistas para falar sobre suas respectivas áreas. Hoje, o Dr. Ronaldo Gismondi fala sobre a Clínica Médica.\",\r\n\t\"cnpj\":\"12.022.825/0001-80\"\r\n}",
							"options": {
								"raw": {
									"language": "json"
								}
							}
						},
						"url": {
							"raw": "{{host}}/clinica/1",
							"host": [
								"{{host}}"
							],
							"path": [
								"clinica",
								"1"
							]
						}
					},
					"response": []
				}
			],
			"protocolProfileBehavior": {}
		}
	],
	"event": [
		{
			"listen": "prerequest",
			"script": {
				"id": "ce02aed6-d6e1-4065-8873-ba8664c3a0b7",
				"type": "text/javascript",
				"exec": [
					""
				]
			}
		},
		{
			"listen": "test",
			"script": {
				"id": "b8bb43c8-267d-46bc-aff7-3d040553a9fe",
				"type": "text/javascript",
				"exec": [
					""
				]
			}
		}
	],
	"variable": [
		{
			"id": "0b537a71-69a1-4d34-9698-f178058e4f9d",
			"key": "host",
			"value": "",
			"type": "string"
		}
	],
	"protocolProfileBehavior": {}
}